"Name","Id"
"1_1_1","fdff7b97-6e17-449b-839e-1fe83973e85d"
"1_1310_1","70f2c56a-295d-411f-ab5a-fe53fa021a0b"
"1_1315_1","854a5578-47a5-443a-9ca3-8a5d3509e2b7"
"101_2_3","149e22f3-8385-49d0-826e-f10a38e9fbb8"
"2_1311_1","185f7a7f-0152-4408-ac45-14c64ecfa7e9"
"3_1312_1","f453d77e-2fb3-4eee-a803-900aafa259c3"
"4_1313_1","dfd69b8d-2353-4e16-b197-e02b994cf2b5"
"5_1314_1","e305221d-5a08-42c4-8f8f-c7f4f8113a2f"
"500_4_6","80bb4287-9cf7-48ec-948e-9d8f114f8107"
"600_2_3","dc7d854b-527c-4110-9ce3-33d3e12d1e20"
